%YAML 1.1
%TAG !u! tag:unity3d.com,2011:
--- !u!74 &7400000
AnimationClip:
  m_ObjectHideFlags: 0
  m_PrefabParentObject: {fileID: 0}
  m_PrefabInternal: {fileID: 0}
  m_Name: adventurer_Run
  serializedVersion: 6
  m_Legacy: 0
  m_Compressed: 0
  m_UseHighQualityCurve: 1
  m_RotationCurves: []
  m_CompressedRotationCurves: []
  m_EulerCurves: []
  m_PositionCurves: []
  m_ScaleCurves: []
  m_FloatCurves: []
  m_PPtrCurves:
  - curve:
    - time: 0
      value: {fileID: 21300000, guid: faf15ef4e41fb4e46a0151f79090cf6d, type: 3}
    - time: 0.083333336
      value: {fileID: 21300000, guid: 303abfb75117df34fb0e27a82ae9c7c0, type: 3}
    - time: 0.16666667
      value: {fileID: 21300000, guid: 71eede4a3fd67c74fbed9eede817ce80, type: 3}
    - time: 0.25
      value: {fileID: 21300000, guid: f6dbd899a68ff3448baed05072a9c700, type: 3}
    - time: 0.33333334
      value: {fileID: 21300000, guid: 7f58aa5d1a557c6469b45065cfe406ef, type: 3}
    - time: 0.41666666
      value: {fileID: 21300000, guid: 2d2617e77095ecf4f92a54b7ef96edb6, type: 3}
    - time: 0.5
      value: {fileID: 21300000, guid: 37d205875e6959947bb4a67a1295bd2e, type: 3}
    - time: 0.5833333
      value: {fileID: 21300000, guid: cda017b4b740b2a4aab38577988a8dea, type: 3}
    attribute: m_Sprite
    path: 
    classID: 212
    script: {fileID: 0}
  m_SampleRate: 12
  m_WrapMode: 0
  m_Bounds:
    m_Center: {x: 0, y: 0, z: 0}
    m_Extent: {x: 0, y: 0, z: 0}
  m_ClipBindingConstant:
    genericBindings:
    - serializedVersion: 2
      path: 0
      attribute: 0
      script: {fileID: 0}
      typeID: 212
      customType: 23
      isPPtrCurve: 1
    pptrCurveMapping:
    - {fileID: 21300000, guid: faf15ef4e41fb4e46a0151f79090cf6d, type: 3}
    - {fileID: 21300000, guid: 303abfb75117df34fb0e27a82ae9c7c0, type: 3}
    - {fileID: 21300000, guid: 71eede4a3fd67c74fbed9eede817ce80, type: 3}
    - {fileID: 21300000, guid: f6dbd899a68ff3448baed05072a9c700, type: 3}
    - {fileID: 21300000, guid: 7f58aa5d1a557c6469b45065cfe406ef, type: 3}
    - {fileID: 21300000, guid: 2d2617e77095ecf4f92a54b7ef96edb6, type: 3}
    - {fileID: 21300000, guid: 37d205875e6959947bb4a67a1295bd2e, type: 3}
    - {fileID: 21300000, guid: cda017b4b740b2a4aab38577988a8dea, type: 3}
  m_AnimationClipSettings:
    serializedVersion: 2
    m_AdditiveReferencePoseClip: {fileID: 0}
    m_AdditiveReferencePoseTime: 0
    m_StartTime: 0
    m_StopTime: 0.6666666
    m_OrientationOffsetY: 0
    m_Level: 0
    m_CycleOffset: 0
    m_HasAdditiveReferencePose: 0
    m_LoopTime: 1
    m_LoopBlend: 0
    m_LoopBlendOrientation: 0
    m_LoopBlendPositionY: 0
    m_LoopBlendPositionXZ: 0
    m_KeepOriginalOrientation: 0
    m_KeepOriginalPositionY: 1
    m_KeepOriginalPositionXZ: 0
    m_HeightFromFeet: 0
    m_Mirror: 0
  m_EditorCurves: []
  m_EulerEditorCurves: []
  m_HasGenericRootTransform: 0
  m_HasMotionFloatCurves: 0
  m_GenerateMotionCurves: 0
  m_Events: []
