%YAML 1.1
%TAG !u! tag:unity3d.com,2011:
--- !u!1045 &1
EditorBuildSettings:
  m_ObjectHideFlags: 0
  serializedVersion: 2
  m_Scenes:
  - enabled: 1
    path: Assets/Scenes/MainMenu.unity
    guid: 0f20be0f6f7a3424f8e6375d7c3a9385
  - enabled: 1
    path: Assets/Scenes/Controls.unity
    guid: 148018a97b6d17a4498aceec5000ba8a
  - enabled: 1
    path: Assets/Scenes/Gameplay.unity
    guid: 69585da2455a30f46b160fa5da48bbb7
  - enabled: 1
    path: Assets/Scenes/GameOver.unity
    guid: 10eaccdbd5efd9d4b80fde40367d832d
  - enabled: 1
    path: Assets/Scenes/WinStage.unity
    guid: a95dead25e513c148971ab84b3922f7b
